…
# current version
packageVersion("cdccovidview")
## [1] '0.1.1'
```

``` r
library(cdccovidview)
library(hrbrthemes)
library(tidyverse)

hosp <- laboratory_confirmed_hospitalizations()

hosp
## # A tibble: 4,590 x 8
##    catchment      network   year  mmwr_year mmwr_week age_category cumulative_rate weekly_rate
##    <chr>          <chr>     <chr> <chr>     <chr>     <chr>                  <dbl>       <dbl>
##  1 Entire Network COVID-NET 2020  2020      10        0-4 yr                   0           0  
##  2 Entire Network COVID-NET 2020  2020      11        0-4 yr                   0           0  
##  3 Entire Network COVID-NET 2020  2020      12        0-4 yr                   0           0  
##  4 Entire Network COVID-NET 2020  2020      13        0-4 yr                   0.3         0.3
##  5 Entire Network COVID-NET 2020  2020      14        0-4 yr                   0.6         0.3
##  6 Entire Network COVID-NET 2020  2020      15        0-4 yr                  NA          NA  
##  7 Entire Network COVID-NET 2020  2020      16        0-4 yr                  NA          NA  
##  8 Entire Network COVID-NET 2020  2020      17        0-4 yr                  NA          NA  
##  9 Entire Network COVID-NET 2020  2020      18        0-4 yr                  NA          NA  
## 10 Entire Network COVID-NET 2020  2020      19        0-4 yr                  NA          NA  
## # … with 4,580 more rows
…
